…
And you want to determine sibling relations. You can use:

``` r
library(famnet)
fmn_siblings(fmn_df, "PersonID", "MotherID", "FatherID")
#> # A tibble: 40 x 3
#>    PersonID RelativeID RelativeType
#>       <int>      <int> <chr>       
#>  1       49         47 sibling     
#>  2       47         48 sibling     
#>  3       44         43 sibling     
#>  4       44         42 sibling     
#>  5       43         44 sibling     
#>  6       42         44 sibling     
#>  7       50         49 sibling     
#>  8       50         48 sibling     
#>  9       49         50 sibling     
#> 10       49         48 sibling     
#> # ... with 30 more rows
```
…
